<?php

$dateact = '12-09-2021';

$dateaut = '2021-07-31';


function isValid ($date, $format ='Y-m-d'){
    $dt = DateTime::createFromFormat($format,$date);
    return $dt && $dt->format($format) === $date;
}

var_dump(isValid($dateact));

var_dump(isValid($dateaut));

?>